<?xml version="1.0" encoding="utf-8"?>
<!-- Generator: Adobe Illustrator 16.0.0, SVG Export Plug-In . SVG Version: 6.00 Build 0)  -->
<!DOCTYPE svg PUBLIC "-//W3C//DTD SVG 1.1//EN" "http://www.w3.org/Graphics/SVG/1.1/DTD/svg11.dtd">
<svg version="1.1" id="Capa_1" xmlns="http://www.w3.org/2000/svg" xmlns:xlink="http://www.w3.org/1999/xlink" x="0px" y="0px"
	 width="512px" height="512px" viewBox="0 0 512 512" enable-background="new 0 0 512 512" xml:space="preserve">
<path fill="#878787" d="M501.71,0H10.29C4.608,0,0.002,4.607,0.002,10.287v491.425C0.002,507.394,4.608,512,10.29,512h299.718
	c5.682,0,10.285-4.606,10.285-10.288s-4.604-10.288-10.285-10.288H20.578V251.643h143.495v98.626
	c0,5.681,4.606,10.287,10.288,10.287c5.682,0,10.288-4.606,10.288-10.287V134.863c0-5.682-4.606-10.288-10.288-10.288
	c-5.681,0-10.288,4.606-10.288,10.288v96.205H20.578V20.575h279.145V149.39c0,5.682,4.604,10.288,10.285,10.288h108.799
	c5.682,0,10.285-4.606,10.285-10.288s-4.604-10.288-10.285-10.288h-98.514V20.575h171.131v319.407H310.008
	c-5.682,0-10.285,4.606-10.285,10.288s4.604,10.288,10.285,10.288h181.416v130.87h-72.617c-5.682,0-10.285,4.606-10.285,10.287
	c0,5.682,4.604,10.288,10.285,10.288h82.903c5.682,0,10.285-4.606,10.285-10.288V10.287C511.998,4.607,507.394,0,501.71,0z"/>
</svg>
